<?xml version="1.0" encoding="UTF-8" standalone="no"?>
<!-- Created with Inkscape (http://www.inkscape.org/) -->
<svg xmlns:dc="http://purl.org/dc/elements/1.1/" xmlns:cc="http://web.resource.org/cc/" xmlns:rdf="http://www.w3.org/1999/02/22-rdf-syntax-ns#" xmlns:svg="http://www.w3.org/2000/svg" xmlns="http://www.w3.org/2000/svg" xmlns:xlink="http://www.w3.org/1999/xlink" xmlns:sodipodi="http://sodipodi.sourceforge.net/DTD/sodipodi-0.dtd" xmlns:inkscape="http://www.inkscape.org/namespaces/inkscape" id="svg2" sodipodi:version="0.32" inkscape:version="0.44.1" width="700" height="800" version="1.0" sodipodi:docbase="/home/rursus/Desktop/astro/wiki" sodipodi:docname="HR-diag-w-text.svg">
  <metadata id="metadata7">
    <rdf:RDF>
      <cc:Work rdf:about="">
        <dc:format>image/svg+xml</dc:format>
        <dc:type rdf:resource="http://purl.org/dc/dcmitype/StillImage"/>
      </cc:Work>
    </rdf:RDF>
  </metadata>
  <defs id="defs5">
    <linearGradient id="linearGradient5712">
      <stop id="stop5714" offset="0" style="stop-color:#629cff;stop-opacity:1;"/>
      <stop style="stop-color:white;stop-opacity:1;" offset="0.46000001" id="stop5718"/>
      <stop id="stop5720" offset="0.62" style="stop-color:#fffdbf;stop-opacity:1;"/>
      <stop id="stop5716" offset="1" style="stop-color:#fff600;stop-opacity:1;"/>
    </linearGradient>
    <linearGradient id="linearGradient3070">
      <stop id="stop3072" offset="0" style="stop-color:#ff00f4;stop-opacity:1;"/>
      <stop style="stop-color:#a99bff;stop-opacity:1;" offset="0.215" id="stop6715"/>
      <stop style="stop-color:#39d323;stop-opacity:1;" offset="0.33500001" id="stop3965"/>
      <stop style="stop-color:#e2df65;stop-opacity:1;" offset="0.52999997" id="stop3963"/>
      <stop style="stop-color:#ffb12c;stop-opacity:1;" offset="0.62" id="stop3076"/>
      <stop id="stop3967" offset="0.73000002" style="stop-color:#ff663e;stop-opacity:1;"/>
      <stop style="stop-color:#c80001;stop-opacity:1;" offset="0.86000001" id="stop3969"/>
      <stop id="stop3074" offset="1" style="stop-color:#870054;stop-opacity:1;"/>
    </linearGradient>
    <linearGradient inkscape:collect="always" xlink:href="#linearGradient3070" id="linearGradient5825" gradientUnits="userSpaceOnUse" x1="137.43382" y1="433.21353" x2="710.25061" y2="432.4263"/>
  </defs>
  <sodipodi:namedview inkscape:window-height="850" inkscape:window-width="980" inkscape:pageshadow="2" inkscape:pageopacity="0.0" guidetolerance="10.0" gridtolerance="10.0" objecttolerance="10.0" borderopacity="1.0" bordercolor="#666666" pagecolor="#ffffff" id="base" inkscape:zoom="1.0465984" inkscape:cx="383.80555" inkscape:cy="48.470329" inkscape:window-x="290" inkscape:window-y="48" inkscape:current-layer="svg2" height="800px" width="700px"/>
  <rect style="fill:url(#linearGradient5825);fill-opacity:1;fill-rule:evenodd;stroke:none;stroke-width:30;stroke-linecap:round;stroke-linejoin:round;stroke-miterlimit:4;stroke-dasharray:none;stroke-dashoffset:0;stroke-opacity:0.37647059" id="rect1873" width="572.81714" height="711.33453" x="124.66107" y="17.663723"/>
  <path style="fill:none;fill-opacity:0.75;fill-rule:evenodd;stroke:white;stroke-width:6.81032705;stroke-linecap:butt;stroke-linejoin:miter;stroke-miterlimit:4;stroke-dasharray:none;stroke-opacity:0.50196078" d="M 188.09511,174.54867 C 188.09511,174.54867 260.4226,173.25527 307.85046,182.30908 C 355.27832,191.36288 549.73255,196.53648 549.73255,196.53648" id="path6701"/>
  <path style="fill:none;fill-opacity:0.75;fill-rule:evenodd;stroke:white;stroke-width:6.81032705;stroke-linecap:butt;stroke-linejoin:miter;stroke-miterlimit:4;stroke-dasharray:none;stroke-opacity:0.50196078" d="M 185.72372,190.06948 C 185.72372,190.06948 252.12272,226.28468 400.33479,218.52429 C 548.54685,210.76389 548.54685,210.76389 548.54685,210.76389" id="path6703"/>
  <path style="fill:none;fill-opacity:0.75;fill-rule:evenodd;stroke:white;stroke-width:7.07059622;stroke-linecap:butt;stroke-linejoin:miter;stroke-miterlimit:4;stroke-dasharray:none;stroke-opacity:0.50196078" d="M 187.12972,211.98981 C 187.12972,211.98981 265.53465,282.72443 405.63524,271.14967 C 576.93437,256.86633 549.5918,259.57492 549.5918,259.57492" id="path6705" sodipodi:nodetypes="csc"/>
  <path style="fill:none;fill-opacity:0.75;fill-rule:evenodd;stroke:white;stroke-width:7.04734945;stroke-linecap:butt;stroke-linejoin:miter;stroke-miterlimit:4;stroke-dasharray:none;stroke-opacity:0.50196078" d="M 184.56536,228.70369 C 184.56536,228.70369 261.1491,314.90458 298.16457,326.4838 C 335.18004,338.06302 382.05893,325.06929 430.90972,313.618 C 485.79473,300.7522 548.33811,294.31929 548.33811,294.31929" id="path6707" sodipodi:nodetypes="cssc"/>
  <path style="fill:none;fill-opacity:0.75;fill-rule:evenodd;stroke:white;stroke-width:6.87541771;stroke-linecap:butt;stroke-linejoin:miter;stroke-miterlimit:4;stroke-dasharray:none;stroke-opacity:0.50196078" d="M 248.605,324.66117 C 248.605,324.66117 287.97734,358.96629 346.183,379.80221 C 385.77246,393.97407 421.43502,383.16566 447.27246,372.65832 C 463.29371,366.14295 473.87603,365.18458 473.87603,365.18458" id="path6709" sodipodi:nodetypes="cssc"/>
  <path style="fill:none;fill-opacity:0.75;fill-rule:evenodd;stroke:white;stroke-width:14.09469891;stroke-linecap:butt;stroke-linejoin:miter;stroke-miterlimit:4;stroke-dasharray:none;stroke-opacity:0.50196078" d="M 185.84175,249.28898 C 185.84175,249.28898 197.2388,278.69529 215.19885,307.1851 C 245.79233,355.71514 309.86845,393.98169 416.86936,425.55049 C 501.71332,450.58226 524.60933,471.72242 547.06171,520.75745 C 554.72009,537.48299 564.27564,600.07216 573.86602,616.92932 C 612.47698,684.79643 683.63605,688.01289 683.63605,688.01289" id="path6711" sodipodi:nodetypes="cssssc"/>
  <path sodipodi:type="arc" style="fill:white;fill-opacity:0.50196078;fill-rule:evenodd;stroke:none;stroke-width:3.39862514;stroke-linecap:round;stroke-linejoin:bevel;stroke-miterlimit:4;stroke-dasharray:3.39862521, 13.59450084;stroke-dashoffset:0;stroke-opacity:1" id="path6713" sodipodi:cx="338.21921" sodipodi:cy="729.9646" sodipodi:rx="129.10518" sodipodi:ry="47.277954" d="M 467.32439 729.9646 A 129.10518 47.277954 0 1 1  209.11403,729.9646 A 129.10518 47.277954 0 1 1  467.32439 729.9646 z" transform="matrix(1.138928,0.332673,-0.713664,0.530908,467.7021,76.01956)"/>
  <path style="fill:black;fill-opacity:1;fill-rule:evenodd;stroke:black;stroke-width:0.59449399px;stroke-linecap:butt;stroke-linejoin:miter;stroke-opacity:1" d="M 56.411486,365.55178 L 56.411486,329.42689 L 51.686466,332.84729 L 58.755545,308.58972 L 64.971555,331.83522 L 61.068959,329.42689 L 61.068959,365.55178 L 56.411486,365.55178 z " id="path22795" sodipodi:nodetypes="cccccccc"/>
  <g id="g5740" transform="matrix(0.70194,0,0,0.707541,53.989,76.35501)">
    <text sodipodi:linespacing="100%" id="text21856" y="1005.1384" x="391.74765" style="font-size:36px;font-style:normal;font-variant:normal;font-weight:normal;font-stretch:normal;text-align:start;line-height:100%;writing-mode:lr-tb;text-anchor:start;fill:black;fill-opacity:1;stroke:black;stroke-width:1px;stroke-linecap:butt;stroke-linejoin:miter;stroke-opacity:1;font-family:Serif" xml:space="preserve"><tspan y="1005.1384" x="391.74765" id="tspan21858" sodipodi:role="line">Spectral Class</tspan></text>
    <g id="g5712">
      <text xml:space="preserve" style="font-size:36px;font-style:normal;font-variant:normal;font-weight:normal;font-stretch:normal;text-align:start;line-height:100%;writing-mode:lr-tb;text-anchor:start;fill:black;fill-opacity:1;stroke:black;stroke-width:1px;stroke-linecap:butt;stroke-linejoin:miter;stroke-opacity:1;font-family:Serif" x="127.34949" y="958.05597" id="text20931" sodipodi:linespacing="100%"><tspan sodipodi:role="line" id="tspan20933" x="127.34949" y="958.05597">O</tspan></text>
      <text xml:space="preserve" style="font-size:36px;font-style:normal;font-variant:normal;font-weight:normal;font-stretch:normal;text-align:start;line-height:100%;writing-mode:lr-tb;text-anchor:start;fill:black;fill-opacity:1;stroke:black;stroke-width:1px;stroke-linecap:butt;stroke-linejoin:miter;stroke-opacity:1;font-family:Serif" x="221.29335" y="958.07355" id="text20935" sodipodi:linespacing="100%"><tspan sodipodi:role="line" id="tspan20937" x="221.29335" y="958.07355">B</tspan></text>
      <text xml:space="preserve" style="font-size:36px;font-style:normal;font-variant:normal;font-weight:normal;font-stretch:normal;text-align:start;line-height:100%;writing-mode:lr-tb;text-anchor:start;fill:black;fill-opacity:1;stroke:black;stroke-width:1px;stroke-linecap:butt;stroke-linejoin:miter;stroke-opacity:1;font-family:Serif" x="313.64639" y="958.07355" id="text20939" sodipodi:linespacing="100%"><tspan sodipodi:role="line" id="tspan20941" x="313.64639" y="958.07355">A</tspan></text>
      <text xml:space="preserve" style="font-size:36px;font-style:normal;font-variant:normal;font-weight:normal;font-stretch:normal;text-align:start;line-height:100%;writing-mode:lr-tb;text-anchor:start;fill:black;fill-opacity:1;stroke:black;stroke-width:1px;stroke-linecap:butt;stroke-linejoin:miter;stroke-opacity:1;font-family:Serif" x="406.28946" y="958.07355" id="text20943" sodipodi:linespacing="100%"><tspan sodipodi:role="line" id="tspan20945" x="406.28946" y="958.07355">F</tspan></text>
      <text xml:space="preserve" style="font-size:36px;font-style:normal;font-variant:normal;font-weight:normal;font-stretch:normal;text-align:start;line-height:100%;writing-mode:lr-tb;text-anchor:start;fill:black;fill-opacity:1;stroke:black;stroke-width:1px;stroke-linecap:butt;stroke-linejoin:miter;stroke-opacity:1;font-family:Serif" x="497.34174" y="958.05597" id="text20947" sodipodi:linespacing="100%"><tspan sodipodi:role="line" id="tspan20949" x="497.34174" y="958.05597">G</tspan></text>
      <text xml:space="preserve" style="font-size:36px;font-style:normal;font-variant:normal;font-weight:normal;font-stretch:normal;text-align:start;line-height:100%;writing-mode:lr-tb;text-anchor:start;fill:black;fill-opacity:1;stroke:black;stroke-width:1px;stroke-linecap:butt;stroke-linejoin:miter;stroke-opacity:1;font-family:Serif" x="588.90375" y="958.07355" id="text20951" sodipodi:linespacing="100%"><tspan sodipodi:role="line" id="tspan20953" x="588.90375" y="958.07355">K</tspan></text>
      <text xml:space="preserve" style="font-size:36px;font-style:normal;font-variant:normal;font-weight:normal;font-stretch:normal;text-align:start;line-height:100%;writing-mode:lr-tb;text-anchor:start;fill:black;fill-opacity:1;stroke:black;stroke-width:1px;stroke-linecap:butt;stroke-linejoin:miter;stroke-opacity:1;font-family:Serif" x="677.50385" y="958.07355" id="text20955" sodipodi:linespacing="100%"><tspan sodipodi:role="line" id="tspan20957" x="677.50385" y="958.07355">M</tspan></text>
      <path style="fill:none;fill-opacity:0.75;fill-rule:evenodd;stroke:black;stroke-width:4;stroke-linecap:butt;stroke-linejoin:miter;stroke-miterlimit:4;stroke-dasharray:none;stroke-opacity:1" d="M 188.26527,923.93245 L 188.26527,965.97044" id="path20959"/>
      <path style="fill:none;fill-opacity:0.75;fill-rule:evenodd;stroke:black;stroke-width:4;stroke-linecap:butt;stroke-linejoin:miter;stroke-miterlimit:4;stroke-dasharray:none;stroke-opacity:1" d="M 280.56557,923.93245 L 280.56557,965.97044" id="path21846"/>
      <path style="fill:none;fill-opacity:0.75;fill-rule:evenodd;stroke:black;stroke-width:4;stroke-linecap:butt;stroke-linejoin:miter;stroke-miterlimit:4;stroke-dasharray:none;stroke-opacity:1" d="M 372.86588,923.93245 L 372.86588,965.97044" id="path21848"/>
      <path style="fill:none;fill-opacity:0.75;fill-rule:evenodd;stroke:black;stroke-width:4;stroke-linecap:butt;stroke-linejoin:miter;stroke-miterlimit:4;stroke-dasharray:none;stroke-opacity:1" d="M 465.1662,923.93245 L 465.1662,965.97044" id="path21850"/>
      <path style="fill:none;fill-opacity:0.75;fill-rule:evenodd;stroke:black;stroke-width:4;stroke-linecap:butt;stroke-linejoin:miter;stroke-miterlimit:4;stroke-dasharray:none;stroke-opacity:1" d="M 557.46651,923.93245 L 557.46651,965.97044" id="path21852"/>
      <path style="fill:none;fill-opacity:0.75;fill-rule:evenodd;stroke:black;stroke-width:4;stroke-linecap:butt;stroke-linejoin:miter;stroke-miterlimit:4;stroke-dasharray:none;stroke-opacity:1" d="M 649.76678,923.93245 L 649.76678,965.97044" id="path21854"/>
      <text xml:space="preserve" style="font-size:36px;font-style:normal;font-variant:normal;font-weight:normal;font-stretch:normal;text-align:start;line-height:100%;writing-mode:lr-tb;text-anchor:start;fill:black;fill-opacity:1;stroke:black;stroke-width:1px;stroke-linecap:butt;stroke-linejoin:miter;stroke-opacity:1;font-family:Serif" x="775.70166" y="958.07355" id="text5518" sodipodi:linespacing="100%"><tspan sodipodi:role="line" id="tspan5520" x="775.70166" y="958.07355">L</tspan></text>
      <path style="fill:none;fill-opacity:0.75;fill-rule:evenodd;stroke:black;stroke-width:4;stroke-linecap:butt;stroke-linejoin:miter;stroke-miterlimit:4;stroke-dasharray:none;stroke-opacity:1" d="M 742.06711,923.93245 L 742.06711,965.97044" id="path5522"/>
      <text xml:space="preserve" style="font-size:36px;font-style:normal;font-variant:normal;font-weight:normal;font-stretch:normal;text-align:start;line-height:100%;writing-mode:lr-tb;text-anchor:start;fill:black;fill-opacity:1;stroke:black;stroke-width:1px;stroke-linecap:butt;stroke-linejoin:miter;stroke-opacity:1;font-family:Serif" x="868.51172" y="958.07355" id="text5524" sodipodi:linespacing="100%"><tspan sodipodi:role="line" id="tspan5526" x="868.51172" y="958.07355">T</tspan></text>
      <path style="fill:none;fill-opacity:0.75;fill-rule:evenodd;stroke:black;stroke-width:4;stroke-linecap:butt;stroke-linejoin:miter;stroke-miterlimit:4;stroke-dasharray:none;stroke-opacity:1" d="M 834.36741,923.93245 L 834.36741,965.97044" id="path5528"/>
    </g>
  </g>
  <text xml:space="preserve" style="font-size:22.55153656px;font-style:normal;font-variant:normal;font-weight:normal;font-stretch:normal;text-align:start;line-height:100%;writing-mode:lr-tb;text-anchor:start;fill:black;fill-opacity:1;stroke:black;stroke-width:1.00000107px;stroke-linecap:butt;stroke-linejoin:miter;stroke-opacity:1;font-family:RursusSans" x="79.011284" y="734.20441" id="text5541" sodipodi:linespacing="100%" transform="scale(0.996034,1.003982)"><tspan sodipodi:role="line" id="tspan5543" x="79.011284" y="734.20441" style="stroke-width:1.00000107">+20</tspan></text>
  <text xml:space="preserve" style="font-size:22.55153656px;font-style:normal;font-variant:normal;font-weight:normal;font-stretch:normal;text-align:start;line-height:100%;writing-mode:lr-tb;text-anchor:start;fill:black;fill-opacity:1;stroke:black;stroke-width:1.00000107px;stroke-linecap:butt;stroke-linejoin:miter;stroke-opacity:1;font-family:RursusSans" x="78.87915" y="632.41803" id="text5545" sodipodi:linespacing="100%" transform="scale(0.996034,1.003982)"><tspan sodipodi:role="line" id="tspan5547" x="78.87915" y="632.41803" style="stroke-width:1.00000107">+15</tspan></text>
  <text xml:space="preserve" style="font-size:22.55153656px;font-style:normal;font-variant:normal;font-weight:normal;font-stretch:normal;text-align:start;line-height:100%;writing-mode:lr-tb;text-anchor:start;fill:black;fill-opacity:1;stroke:black;stroke-width:1.00000107px;stroke-linecap:butt;stroke-linejoin:miter;stroke-opacity:1;font-family:RursusSans" x="79.011284" y="530.63159" id="text5549" sodipodi:linespacing="100%" transform="scale(0.996034,1.003982)"><tspan sodipodi:role="line" id="tspan5551" x="79.011284" y="530.63159" style="stroke-width:1.00000107">+10</tspan></text>
  <text xml:space="preserve" style="font-size:22.55153656px;font-style:normal;font-variant:normal;font-weight:normal;font-stretch:normal;text-align:start;line-height:100%;writing-mode:lr-tb;text-anchor:start;fill:black;fill-opacity:1;stroke:black;stroke-width:1.00000107px;stroke-linecap:butt;stroke-linejoin:miter;stroke-opacity:1;font-family:RursusSans" x="91.432259" y="428.84482" id="text5553" sodipodi:linespacing="100%" transform="scale(0.996034,1.003982)"><tspan sodipodi:role="line" id="tspan5555" x="91.432259" y="428.84482" style="stroke-width:1.00000107">+5</tspan></text>
  <text xml:space="preserve" style="font-size:22.55153656px;font-style:normal;font-variant:normal;font-weight:normal;font-stretch:normal;text-align:start;line-height:100%;writing-mode:lr-tb;text-anchor:start;fill:black;fill-opacity:1;stroke:black;stroke-width:1.00000107px;stroke-linecap:butt;stroke-linejoin:miter;stroke-opacity:1;font-family:RursusSans" x="104.73417" y="327.05844" id="text5557" sodipodi:linespacing="100%" transform="scale(0.996034,1.003982)"><tspan sodipodi:role="line" id="tspan5559" x="104.73417" y="327.05844" style="stroke-width:1.00000107">0</tspan></text>
  <text xml:space="preserve" style="font-size:22.55153656px;font-style:normal;font-variant:normal;font-weight:normal;font-stretch:normal;text-align:start;line-height:100%;writing-mode:lr-tb;text-anchor:start;fill:black;fill-opacity:1;stroke:black;stroke-width:1.00000107px;stroke-linecap:butt;stroke-linejoin:miter;stroke-opacity:1;font-family:RursusSans" x="97.246338" y="225.2719" id="text5561" sodipodi:linespacing="100%" transform="scale(0.996034,1.003982)"><tspan sodipodi:role="line" id="tspan5563" x="97.246338" y="225.2719" style="stroke-width:1.00000107">-5</tspan></text>
  <text xml:space="preserve" style="font-size:22.55153656px;font-style:normal;font-variant:normal;font-weight:normal;font-stretch:normal;text-align:start;line-height:100%;writing-mode:lr-tb;text-anchor:start;fill:black;fill-opacity:1;stroke:black;stroke-width:1.00000107px;stroke-linecap:butt;stroke-linejoin:miter;stroke-opacity:1;font-family:RursusSans" x="84.825356" y="123.48528" id="text5565" sodipodi:linespacing="100%" transform="scale(0.996034,1.003982)"><tspan sodipodi:role="line" id="tspan5567" x="84.825356" y="123.48528" style="stroke-width:1.00000107">-10</tspan></text>
  <path style="fill:none;fill-opacity:0.75;fill-rule:evenodd;stroke:black;stroke-width:3.10511947;stroke-linecap:butt;stroke-linejoin:miter;stroke-miterlimit:4;stroke-dasharray:none;stroke-opacity:1" d="M 698.18222,321.42932 L 124.53498,322.1422" id="path4615" sodipodi:nodetypes="cc"/>
  <path style="fill:none;fill-opacity:0.75;fill-rule:evenodd;stroke:black;stroke-width:3.10511947;stroke-linecap:butt;stroke-linejoin:miter;stroke-miterlimit:4;stroke-dasharray:none;stroke-opacity:1" d="M 698.18222,219.59519 L 124.53498,220.30806" id="path4617" sodipodi:nodetypes="cc"/>
  <path style="fill:none;fill-opacity:0.75;fill-rule:evenodd;stroke:black;stroke-width:3.10511947;stroke-linecap:butt;stroke-linejoin:miter;stroke-miterlimit:4;stroke-dasharray:none;stroke-opacity:1" d="M 698.18222,117.76107 L 124.53498,118.47394" id="path5510" sodipodi:nodetypes="cc"/>
  <path style="fill:none;fill-opacity:0.75;fill-rule:evenodd;stroke:black;stroke-width:3.10511947;stroke-linecap:butt;stroke-linejoin:miter;stroke-miterlimit:4;stroke-dasharray:none;stroke-opacity:1" d="M 698.18222,423.26344 L 124.53498,423.97631" id="path5512" sodipodi:nodetypes="cc"/>
  <path style="fill:none;fill-opacity:0.75;fill-rule:evenodd;stroke:black;stroke-width:3.10511947;stroke-linecap:butt;stroke-linejoin:miter;stroke-miterlimit:4;stroke-dasharray:none;stroke-opacity:1" d="M 698.18221,525.09759 L 124.53498,525.81046" id="path5514" sodipodi:nodetypes="cc"/>
  <path style="fill:none;fill-opacity:0.75;fill-rule:evenodd;stroke:black;stroke-width:3.10511947;stroke-linecap:butt;stroke-linejoin:miter;stroke-miterlimit:4;stroke-dasharray:none;stroke-opacity:1" d="M 698.18221,626.93172 L 124.53498,627.64457" id="path5516" sodipodi:nodetypes="cc"/>
  <path style="fill:none;fill-opacity:0.75;fill-rule:evenodd;stroke:black;stroke-width:3.10511947;stroke-linecap:butt;stroke-linejoin:miter;stroke-miterlimit:4;stroke-dasharray:none;stroke-opacity:1" d="M 698.18221,728.76583 L 124.53498,729.47868" id="path5771" sodipodi:nodetypes="cc"/>
  <path style="fill:none;fill-opacity:0.75;fill-rule:evenodd;stroke:white;stroke-width:7.04734945;stroke-linecap:butt;stroke-linejoin:miter;stroke-miterlimit:4;stroke-dasharray:none;stroke-opacity:0.50196078" d="M 397.33889,442.17181 C 397.33889,442.17181 458.13802,453.98945 490.32512,485.16639 C 515.12113,509.18419 523.59542,533.32033 523.59542,533.32033" id="path7641" sodipodi:nodetypes="csc"/>
  <text xml:space="preserve" style="font-size:28.18942451px;font-style:normal;font-variant:normal;font-weight:normal;font-stretch:normal;text-align:start;line-height:100%;writing-mode:lr-tb;text-anchor:start;fill:#820000;fill-opacity:1;stroke:#7f0000;stroke-width:1.05710328;stroke-linecap:butt;stroke-linejoin:miter;stroke-miterlimit:4;stroke-dasharray:none;stroke-opacity:1;font-family:Serif" x="480.04053" y="375.16693" id="text2261" sodipodi:linespacing="100%" transform="scale(0.996034,1.003982)"><tspan sodipodi:role="line" id="tspan2263" x="480.04053" y="375.16693" style="fill:#820000;fill-opacity:1;stroke:#7f0000;stroke-width:1.05710328;stroke-opacity:1">IV</tspan></text>
  <text xml:space="preserve" style="font-size:28.18942451px;font-style:normal;font-variant:normal;font-weight:normal;font-stretch:normal;text-align:start;line-height:100%;writing-mode:lr-tb;text-anchor:start;fill:#820000;fill-opacity:1;stroke:#7f0000;stroke-width:1.05710328;stroke-linecap:butt;stroke-linejoin:miter;stroke-miterlimit:4;stroke-dasharray:none;stroke-opacity:1;font-family:Serif" x="556.9859" y="303.4274" id="text2265" sodipodi:linespacing="100%" transform="scale(0.996034,1.003982)"><tspan sodipodi:role="line" id="tspan2267" x="556.9859" y="303.4274" style="fill:#820000;fill-opacity:1;stroke:#7f0000;stroke-width:1.05710328;stroke-opacity:1">III</tspan></text>
  <text xml:space="preserve" style="font-size:28.18942451px;font-style:normal;font-variant:normal;font-weight:normal;font-stretch:normal;text-align:start;line-height:100%;writing-mode:lr-tb;text-anchor:start;fill:#820000;fill-opacity:1;stroke:#7f0000;stroke-width:1.05710328;stroke-linecap:butt;stroke-linejoin:miter;stroke-miterlimit:4;stroke-dasharray:none;stroke-opacity:1;font-family:Serif" x="556.9859" y="270.10895" id="text2269" sodipodi:linespacing="100%" transform="scale(0.996034,1.003982)"><tspan sodipodi:role="line" id="tspan2271" x="556.9859" y="270.10895" style="fill:#820000;fill-opacity:1;stroke:#7f0000;stroke-width:1.05710328;stroke-opacity:1">II</tspan></text>
  <text xml:space="preserve" style="font-size:28.18942451px;font-style:normal;font-variant:normal;font-weight:normal;font-stretch:normal;text-align:start;line-height:100%;writing-mode:lr-tb;text-anchor:start;fill:#820000;fill-opacity:1;stroke:#7f0000;stroke-width:1.05710328;stroke-linecap:butt;stroke-linejoin:miter;stroke-miterlimit:4;stroke-dasharray:none;stroke-opacity:1;font-family:Serif" x="556.9859" y="234.22755" id="text2273" sodipodi:linespacing="100%" transform="scale(0.996034,1.003982)"><tspan sodipodi:role="line" id="tspan2275" x="556.9859" y="234.22755" style="fill:#820000;fill-opacity:1;stroke:#7f0000;stroke-width:1.05710328;stroke-opacity:1">Ib</tspan></text>
  <text xml:space="preserve" style="font-size:28.18942451px;font-style:normal;font-variant:normal;font-weight:normal;font-stretch:normal;text-align:start;line-height:100%;writing-mode:lr-tb;text-anchor:start;fill:#820000;fill-opacity:1;stroke:#7f0000;stroke-width:1.05710328;stroke-linecap:butt;stroke-linejoin:miter;stroke-miterlimit:4;stroke-dasharray:none;stroke-opacity:1;font-family:Serif" x="556.9859" y="199.62755" id="text2277" sodipodi:linespacing="100%" transform="scale(0.996034,1.003982)"><tspan sodipodi:role="line" id="tspan2279" x="556.9859" y="199.62755" style="fill:#820000;fill-opacity:1;stroke:#7f0000;stroke-width:1.05710328;stroke-opacity:1">Ia</tspan></text>
  <path sodipodi:type="arc" style="fill:white;fill-opacity:0.25098039;fill-rule:evenodd;stroke:none;stroke-width:1.5;stroke-linecap:round;stroke-linejoin:bevel;stroke-miterlimit:4;stroke-dasharray:none;stroke-dashoffset:0;stroke-opacity:1" id="path7597" sodipodi:cx="278.52136" sodipodi:cy="81.352455" sodipodi:rx="115.1349" sodipodi:ry="27.708813" d="M 393.65627 81.352455 A 115.1349 27.708813 0 1 1  163.38646,81.352455 A 115.1349 27.708813 0 1 1  393.65627 81.352455 z" transform="matrix(1.576763,0,0,1,-51.547,-5.732858)"/>
  <text xml:space="preserve" style="font-size:28.18945885px;font-style:normal;font-variant:normal;font-weight:normal;font-stretch:normal;text-align:start;line-height:100%;writing-mode:lr-tb;text-anchor:start;fill:#820000;fill-opacity:1;stroke:#7f0000;stroke-width:1.05710435;stroke-linecap:butt;stroke-linejoin:miter;stroke-miterlimit:4;stroke-dasharray:none;stroke-opacity:1;font-family:Serif" x="506.61484" y="84.500137" id="text2281" sodipodi:linespacing="100%" transform="scale(0.996034,1.003982)"><tspan sodipodi:role="line" id="tspan2283" x="506.61484" y="84.500137" style="fill:#820000;fill-opacity:1;stroke:#7f0000;stroke-width:1.05710435;stroke-opacity:1">0</tspan></text>
  <text xml:space="preserve" style="font-size:22.55181122px;font-style:normal;font-variant:normal;font-weight:normal;font-stretch:normal;text-align:start;line-height:100%;writing-mode:lr-tb;text-anchor:start;fill:black;fill-opacity:1;stroke:black;stroke-width:1.05711412;stroke-linecap:butt;stroke-linejoin:miter;stroke-miterlimit:4;stroke-dasharray:none;stroke-opacity:1;font-family:Serif" x="248.95685" y="85.617653" id="text2285" sodipodi:linespacing="100%" transform="matrix(0.996005,-7.690224e-3,7.629347e-3,1.003952,0,0)"><tspan sodipodi:role="line" id="tspan2287" x="248.95685" y="85.617653" style="fill:black;fill-opacity:1;stroke:black;stroke-width:1.05711412;stroke-opacity:1">Hypergiants</tspan></text>
  <text xml:space="preserve" style="font-size:28.18942451px;font-style:normal;font-variant:normal;font-weight:normal;font-stretch:normal;text-align:start;line-height:100%;writing-mode:lr-tb;text-anchor:start;fill:#820000;fill-opacity:1;stroke:#7f0000;stroke-width:1.05710328;stroke-linecap:butt;stroke-linejoin:miter;stroke-miterlimit:4;stroke-dasharray:none;stroke-opacity:1;font-family:Serif" x="487.66492" y="458.48633" id="text2289" sodipodi:linespacing="100%" transform="scale(0.996034,1.003982)"><tspan sodipodi:role="line" id="tspan2291" x="487.66492" y="458.48633" style="fill:#820000;fill-opacity:1;stroke:#7f0000;stroke-width:1.05710328;stroke-opacity:1">V</tspan></text>
  <text xml:space="preserve" style="font-size:28.18942451px;font-style:normal;font-variant:normal;font-weight:normal;font-stretch:normal;text-align:start;line-height:100%;writing-mode:lr-tb;text-anchor:start;fill:#820000;fill-opacity:1;stroke:#7f0000;stroke-width:1.05710328;stroke-linecap:butt;stroke-linejoin:miter;stroke-miterlimit:4;stroke-dasharray:none;stroke-opacity:1;font-family:Serif" x="460.75381" y="487.96036" id="text2293" sodipodi:linespacing="100%" transform="scale(0.996034,1.003982)"><tspan sodipodi:role="line" id="tspan2295" x="460.75381" y="487.96036" style="fill:#820000;fill-opacity:1;stroke:#7f0000;stroke-width:1.05710328;stroke-opacity:1">VI</tspan></text>
  <path style="fill:none;fill-opacity:0.75;fill-rule:evenodd;stroke:black;stroke-width:3.10511947;stroke-linecap:butt;stroke-linejoin:miter;stroke-miterlimit:4;stroke-dasharray:none;stroke-opacity:1" d="M 698.35528,15.926937 L 124.70804,16.639805" id="path3197" sodipodi:nodetypes="cc"/>
  <text xml:space="preserve" style="font-size:22.55153656px;font-style:normal;font-variant:normal;font-weight:normal;font-stretch:normal;text-align:start;line-height:100%;writing-mode:lr-tb;text-anchor:start;fill:black;fill-opacity:1;stroke:black;stroke-width:1.00000107px;stroke-linecap:butt;stroke-linejoin:miter;stroke-opacity:1;font-family:RursusSans" x="84.693214" y="21.698812" id="text3215" sodipodi:linespacing="100%" transform="scale(0.996034,1.003982)"><tspan sodipodi:role="line" id="tspan3217" x="84.693214" y="21.698812" style="stroke-width:1.00000107">-15</tspan></text>
  <text xml:space="preserve" style="font-size:28.18943596px;font-style:normal;font-variant:normal;font-weight:normal;font-stretch:normal;text-align:start;line-height:100%;writing-mode:lr-tb;text-anchor:start;fill:#820000;fill-opacity:1;stroke:#7f0000;stroke-width:1.05710363;stroke-linecap:butt;stroke-linejoin:miter;stroke-miterlimit:4;stroke-dasharray:none;stroke-opacity:1;font-family:Serif" x="410.77362" y="611.05511" id="text9369" sodipodi:linespacing="100%" transform="scale(0.996034,1.003982)"><tspan sodipodi:role="line" id="tspan9371" x="410.77362" y="611.05511" style="fill:#820000;fill-opacity:1;stroke:#7f0000;stroke-width:1.05710363;stroke-opacity:1">VII</tspan></text>
  <text xml:space="preserve" style="font-size:22.55180168px;font-style:normal;font-variant:normal;font-weight:normal;font-stretch:normal;text-align:start;line-height:100%;writing-mode:lr-tb;text-anchor:start;fill:black;fill-opacity:1;stroke:black;stroke-width:1.05711353;stroke-linecap:butt;stroke-linejoin:miter;stroke-miterlimit:4;stroke-dasharray:none;stroke-opacity:1;font-family:Serif" x="328.95557" y="519.12433" id="text11180" sodipodi:linespacing="100%" transform="matrix(0.996005,-7.690224e-3,7.629347e-3,1.003952,0,0)"><tspan sodipodi:role="line" id="tspan11182" x="328.95557" y="519.12433" style="fill:black;fill-opacity:1;stroke:black;stroke-width:1.05711353;stroke-opacity:1">Subdwarfs</tspan></text>
  <text xml:space="preserve" style="font-size:22.55179787px;font-style:normal;font-variant:normal;font-weight:normal;font-stretch:normal;text-align:start;line-height:100%;writing-mode:lr-tb;text-anchor:start;fill:black;fill-opacity:1;stroke:black;stroke-width:1.05711329;stroke-linecap:butt;stroke-linejoin:miter;stroke-miterlimit:4;stroke-dasharray:none;stroke-opacity:1;font-family:Serif" x="237.87445" y="579.10504" id="text11184" sodipodi:linespacing="100%" transform="matrix(0.996005,-7.690224e-3,7.629347e-3,1.003952,0,0)"><tspan sodipodi:role="line" id="tspan11186" x="237.87445" y="579.10504" style="fill:black;fill-opacity:1;stroke:black;stroke-width:1.05711329;stroke-opacity:1">White Dwarfs</tspan></text>
  <text xml:space="preserve" style="font-size:22.55179405px;font-style:normal;font-variant:normal;font-weight:normal;font-stretch:normal;text-align:start;line-height:100%;writing-mode:lr-tb;text-anchor:start;fill:black;fill-opacity:1;stroke:black;stroke-width:1.05711305;stroke-linecap:butt;stroke-linejoin:miter;stroke-miterlimit:4;stroke-dasharray:none;stroke-opacity:1;font-family:Serif" x="523.6192" y="721.1958" id="text11188" sodipodi:linespacing="100%" transform="matrix(0.996005,-7.690224e-3,7.629347e-3,1.003952,0,0)"><tspan sodipodi:role="line" id="tspan11190" x="523.6192" y="721.1958" style="fill:black;fill-opacity:1;stroke:black;stroke-width:1.05711305;stroke-opacity:1">Brown Dwarfs</tspan></text>
  <text xml:space="preserve" style="font-size:22.55179405px;font-style:normal;font-variant:normal;font-weight:normal;font-stretch:normal;text-align:start;line-height:100%;writing-mode:lr-tb;text-anchor:start;fill:black;fill-opacity:1;stroke:black;stroke-width:1.05711305;stroke-linecap:butt;stroke-linejoin:miter;stroke-miterlimit:4;stroke-dasharray:none;stroke-opacity:1;font-family:Serif" x="140.32527" y="414.66287" id="text11196" sodipodi:linespacing="100%" transform="matrix(0.996005,-7.690224e-3,7.629347e-3,1.003952,0,0)"><tspan sodipodi:role="line" id="tspan11198" x="140.32527" y="414.66287" style="fill:black;fill-opacity:1;stroke:black;stroke-width:1.05711305;stroke-opacity:1">Main Sequence</tspan></text>
  <text xml:space="preserve" style="font-size:22.55179214px;font-style:normal;font-variant:normal;font-weight:normal;font-stretch:normal;text-align:start;line-height:100%;writing-mode:lr-tb;text-anchor:start;fill:black;fill-opacity:1;stroke:black;stroke-width:1.05711293;stroke-linecap:butt;stroke-linejoin:miter;stroke-miterlimit:4;stroke-dasharray:none;stroke-opacity:1;font-family:Serif" x="428.9101" y="416.62509" id="text11200" sodipodi:linespacing="100%" transform="matrix(0.996005,-7.690224e-3,7.629347e-3,1.003952,0,0)"><tspan sodipodi:role="line" id="tspan11202" x="428.9101" y="416.62509" style="fill:black;fill-opacity:1;stroke:black;stroke-width:1.05711293;stroke-opacity:1">Dwarfs</tspan></text>
  <text xml:space="preserve" style="font-size:22.55178833px;font-style:normal;font-variant:normal;font-weight:normal;font-stretch:normal;text-align:start;line-height:100%;writing-mode:lr-tb;text-anchor:start;fill:black;fill-opacity:1;stroke:black;stroke-width:1.05711269;stroke-linecap:butt;stroke-linejoin:miter;stroke-miterlimit:4;stroke-dasharray:none;stroke-opacity:1;font-family:Serif" x="342.98557" y="362.67084" id="text11204" sodipodi:linespacing="100%" transform="matrix(0.996005,-7.690224e-3,7.629347e-3,1.003952,0,0)"><tspan sodipodi:role="line" id="tspan11206" x="342.98557" y="362.67084" style="fill:black;fill-opacity:1;stroke:black;stroke-width:1.05711269;stroke-opacity:1">Subgiants</tspan></text>
  <text xml:space="preserve" style="font-size:22.55179024px;font-style:normal;font-variant:normal;font-weight:normal;font-stretch:normal;text-align:start;line-height:100%;writing-mode:lr-tb;text-anchor:start;fill:black;fill-opacity:1;stroke:black;stroke-width:1.05711281;stroke-linecap:butt;stroke-linejoin:miter;stroke-miterlimit:4;stroke-dasharray:none;stroke-opacity:1;font-family:Serif" x="466.30206" y="294.14026" id="text11208" sodipodi:linespacing="100%" transform="matrix(0.996005,-7.690224e-3,7.629347e-3,1.003952,0,0)"><tspan sodipodi:role="line" id="tspan11210" x="466.30206" y="294.14026" style="fill:black;fill-opacity:1;stroke:black;stroke-width:1.05711281;stroke-opacity:1">Giants</tspan></text>
  <text xml:space="preserve" style="font-size:22.55179024px;font-style:normal;font-variant:normal;font-weight:normal;font-stretch:normal;text-align:start;line-height:100%;writing-mode:lr-tb;text-anchor:start;fill:black;fill-opacity:1;stroke:black;stroke-width:1.05711281;stroke-linecap:butt;stroke-linejoin:miter;stroke-miterlimit:4;stroke-dasharray:none;stroke-opacity:1;font-family:Serif" x="385.04987" y="256.40106" id="text11212" sodipodi:linespacing="100%" transform="matrix(0.996005,-7.690224e-3,7.629347e-3,1.003952,0,0)"><tspan sodipodi:role="line" id="tspan11214" x="385.04987" y="256.40106" style="fill:black;fill-opacity:1;stroke:black;stroke-width:1.05711281;stroke-opacity:1">Bright Giants</tspan></text>
  <text xml:space="preserve" style="font-size:22.55178833px;font-style:normal;font-variant:normal;font-weight:normal;font-stretch:normal;text-align:start;line-height:100%;writing-mode:lr-tb;text-anchor:start;fill:black;fill-opacity:1;stroke:black;stroke-width:1.05711269;stroke-linecap:butt;stroke-linejoin:miter;stroke-miterlimit:4;stroke-dasharray:none;stroke-opacity:1;font-family:Serif" x="368.17697" y="204.8792" id="text11216" sodipodi:linespacing="100%" transform="matrix(0.996005,-7.690224e-3,7.629347e-3,1.003952,0,0)"><tspan sodipodi:role="line" id="tspan11218" x="368.17697" y="204.8792" style="fill:black;fill-opacity:1;stroke:black;stroke-width:1.05711269;stroke-opacity:1">Supergiants</tspan></text>
  <text xml:space="preserve" style="font-size:22.55176926px;font-style:normal;font-variant:normal;font-weight:normal;font-stretch:normal;text-align:center;line-height:100%;writing-mode:lr-tb;text-anchor:middle;fill:black;fill-opacity:1;stroke:black;stroke-width:1.0571115;stroke-linecap:butt;stroke-linejoin:miter;stroke-miterlimit:4;stroke-dasharray:none;stroke-opacity:1;font-family:Serif" x="52.343197" y="387.72021" id="text11220" sodipodi:linespacing="100%" transform="matrix(0.996005,-7.690224e-3,7.629347e-3,1.003952,0,0)"><tspan sodipodi:role="line" id="tspan11222" x="52.343198" y="387.72021" style="text-align:center;text-anchor:middle;fill:black;fill-opacity:1;stroke:black;stroke-width:1.0571115;stroke-opacity:1">Absolute</tspan><tspan sodipodi:role="line" x="52.343197" y="410.27198" style="text-align:center;text-anchor:middle;fill:black;fill-opacity:1;stroke:black;stroke-width:1.0571115;stroke-opacity:1" id="tspan11224">Magn-</tspan><tspan sodipodi:role="line" x="52.343198" y="432.82375" style="text-align:center;text-anchor:middle;fill:black;fill-opacity:1;stroke:black;stroke-width:1.0571115;stroke-opacity:1" id="tspan11226">itude</tspan></text>
</svg>